; Engine configuration file.
; It's best edited using the editor UI and not directly,
; since the parameters that go here are not all obvious.
;
; Format:
;   [section] ; section goes between []
;   param=value ; assign values to parameters

config_version=4

_global_script_classes=[ {
"base": "PathFollow2D",
"class": "Enemies",
"language": "GDScript",
"path": "res://src/Enemies/Enemies.gd"
}, {
"base": "Area2D",
"class": "Projectile",
"language": "GDScript",
"path": "res://src/Projectile/Projectile.gd"
}, {
"base": "Area2D",
"class": "Towers",
"language": "GDScript",
"path": "res://src/Towers/Towers.gd"
} ]
_global_script_class_icons={
"Enemies": "",
"Projectile": "",
"Towers": ""
}

[application]

config/name="Orbital"
config/icon="res://src/icon.png"

[autoload]

GlobalSettings="*res://src/GlobalSettings.gd"

[display]

window/size/width=1280
window/size/height=720
window/size/resizable=false

[input]

click={
"deadzone": 0.5,
"events": [ Object(InputEventMouseButton,"resource_local_to_scene":false,"resource_name":"","device":0,"alt":false,"shift":false,"control":false,"meta":false,"command":false,"button_mask":0,"position":Vector2( 0, 0 ),"global_position":Vector2( 0, 0 ),"factor":1.0,"button_index":1,"pressed":false,"doubleclick":false,"script":null)
 ]
}

[layer_names]

2d_render/layer_1="Enemy"
2d_physics/layer_1="Enemy"
2d_render/layer_2="Projectile"
2d_physics/layer_2="Projectile"
2d_render/layer_3="Tower"
2d_physics/layer_3="Tower"
2d_physics/layer_4="Flying Enemy"

[physics]

common/enable_pause_aware_picking=true

[rendering]

environment/default_environment="res://src/default_env.tres"
