[gd_scene load_steps=9 format=2]

[ext_resource path="res://src/Projectile/Normal Projectile.gd" type="Script" id=1]
[ext_resource path="res://Assets/Images/Projectiles/PROJECTILE_BULLET_CRASH1.svg" type="Texture" id=2]
[ext_resource path="res://Assets/Images/Projectiles/PROJECTILE_BULLET_CRASH2.svg" type="Texture" id=3]
[ext_resource path="res://Assets/Images/Projectiles/PROJECTILE_BULLET_CRASH3.svg" type="Texture" id=4]
[ext_resource path="res://Assets/Images/Projectiles/PROJECTILE_BULLET_CRASH4.svg" type="Texture" id=5]
[ext_resource path="res://Assets/Images/Projectiles/PROJECTILE_BULLET_CRASH5.svg" type="Texture" id=6]
[ext_resource path="res://Assets/Images/Projectiles/PROJECTILE_BULLET_CRASH6.svg" type="Texture" id=7]

[sub_resource type="SpriteFrames" id=1]
animations = [ {
"frames": [ ExtResource( 2 ) ],
"loop": true,
"name": "default",
"speed": 5.0
}, {
"frames": [ ExtResource( 2 ), ExtResource( 3 ), ExtResource( 4 ), ExtResource( 5 ), ExtResource( 6 ), ExtResource( 7 ) ],
"loop": true,
"name": "dealdamage",
"speed": 20.0
} ]

[node name="Area2D" type="Area2D" groups=[
"Projectile",
]]
collision_layer = 2
script = ExtResource( 1 )

[node name="AnimatedSprite" type="AnimatedSprite" parent="." groups=[
"Projectile",
]]
frames = SubResource( 1 )
animation = "dealdamage"
frame = 4

[node name="CollisionPolygon2D" type="CollisionPolygon2D" parent="." groups=[
"Projectile",
]]
polygon = PoolVector2Array( -9, -5, 6, -5, 10, 0, 6, 5, -9, 5 )

[connection signal="area_entered" from="." to="." method="_on_Area2D_area_entered"]
